%FSLAX35Y35*%
%MOIN*%
G04 EasyPC Gerber Version 18.0.9 Build 3640 *
%ADD28O,0.06600X0.11600*%
%ADD25R,0.10600X0.10600*%
%ADD26R,0.10600X0.10600*%
%ADD72C,0.05400*%
%ADD27C,0.06600*%
%ADD91C,0.06899*%
%ADD90C,0.12411*%
%ADD22C,0.13198*%
X0Y0D02*
D02*
D22*
X14000Y14250D03*
Y199250D03*
X354000D03*
D02*
D25*
X37750Y191750D03*
X57750D03*
X72750Y20500D03*
X77750Y191750D03*
X92750Y20500D03*
X97750Y191750D03*
X112750Y20500D03*
X117750Y191750D03*
X132750Y20500D03*
X137750Y191750D03*
X152750Y20500D03*
X157750Y191750D03*
X172750Y20500D03*
X177750Y191750D03*
X192750Y20500D03*
X212750D03*
D02*
D26*
X241500Y191750D03*
X261500D03*
D02*
D27*
X30250Y94250D03*
X34000Y139250D03*
Y159250D03*
X41500Y20500D03*
Y40500D03*
Y53000D03*
Y73000D03*
X50250Y94250D03*
X51500Y63000D03*
X54000Y20500D03*
Y30500D03*
X92750Y139250D03*
Y159250D03*
X102750Y129250D03*
X107750Y83000D03*
Y149250D03*
X110250Y51750D03*
Y71750D03*
X117750Y159250D03*
X122750Y63000D03*
X127750Y149250D03*
X132750Y53000D03*
X140250Y140500D03*
Y160500D03*
X142750Y63000D03*
Y129250D03*
X147750Y83000D03*
X157750Y53000D03*
Y73000D03*
X196500Y181750D03*
Y191750D03*
X199000Y149250D03*
X200250Y118000D03*
X209000Y139250D03*
Y159250D03*
Y171750D03*
Y191750D03*
X215250Y53000D03*
Y73000D03*
X220250Y118000D03*
D02*
D28*
X47750Y129250D03*
Y159250D03*
X57750Y129250D03*
Y159250D03*
X67750Y53000D03*
Y83000D03*
Y129250D03*
Y159250D03*
X77750Y53000D03*
Y83000D03*
Y129250D03*
Y159250D03*
X87750Y53000D03*
Y83000D03*
X97750Y53000D03*
Y83000D03*
X152750Y129250D03*
Y159250D03*
X162750Y129250D03*
Y159250D03*
X172750Y53000D03*
Y83000D03*
Y129250D03*
Y159250D03*
X182750Y53000D03*
Y83000D03*
Y129250D03*
Y159250D03*
X192750Y53000D03*
Y83000D03*
X202750Y53000D03*
Y83000D03*
D02*
D72*
X210250Y103000D03*
X241500Y94250D03*
D02*
D90*
Y15500D03*
Y155500D03*
X261500Y15500D03*
X281500D03*
X351500Y155500D03*
D02*
D91*
X41500Y63000D03*
X117750Y149250D03*
X132750Y63000D03*
X209000Y149250D03*
X0Y0D02*
M02*
