G81
M48
INCH
T1C000.02400
T2C000.03000
T3C000.03200
T4C000.04000
T5C000.04331
T6C000.04724
T7C000.12598
%
T001
X00210250Y00103000
X00241500Y00094250
T002
X00041500Y00063000
X00117750Y00149250
X00132750Y00063000
X00209000Y00149250
T003
X00030250Y00094250
X00034000Y00139250
X00034000Y00159250
X00041500Y00020500
X00041500Y00040500
X00041500Y00053000
X00041500Y00073000
X00047750Y00129250
X00047750Y00159250
X00050250Y00094250
X00051500Y00063000
X00054000Y00020500
X00054000Y00030500
X00057750Y00129250
X00057750Y00159250
X00067750Y00053000
X00067750Y00083000
X00067750Y00129250
X00067750Y00159250
X00077750Y00053000
X00077750Y00083000
X00077750Y00129250
X00077750Y00159250
X00087750Y00053000
X00087750Y00083000
X00092750Y00139250
X00092750Y00159250
X00097750Y00053000
X00097750Y00083000
X00102750Y00129250
X00107750Y00083000
X00107750Y00149250
X00110250Y00051750
X00110250Y00071750
X00117750Y00159250
X00122750Y00063000
X00127750Y00149250
X00132750Y00053000
X00140250Y00140500
X00140250Y00160500
X00142750Y00063000
X00142750Y00129250
X00147750Y00083000
X00152750Y00129250
X00152750Y00159250
X00157750Y00053000
X00157750Y00073000
X00162750Y00129250
X00162750Y00159250
X00172750Y00053000
X00172750Y00083000
X00172750Y00129250
X00172750Y00159250
X00182750Y00053000
X00182750Y00083000
X00182750Y00129250
X00182750Y00159250
X00192750Y00053000
X00192750Y00083000
X00196500Y00181750
X00196500Y00191750
X00199000Y00149250
X00200250Y00118000
X00202750Y00053000
X00202750Y00083000
X00209000Y00139250
X00209000Y00159250
X00209000Y00171750
X00209000Y00191750
X00215250Y00053000
X00215250Y00073000
X00220250Y00118000
T004
X00037750Y00191750
X00057750Y00191750
X00072750Y00020500
X00077750Y00191750
X00092750Y00020500
X00097750Y00191750
X00112750Y00020500
X00117750Y00191750
X00132750Y00020500
X00137750Y00191750
X00152750Y00020500
X00157750Y00191750
X00172750Y00020500
X00177750Y00191750
X00192750Y00020500
X00212750Y00020500
T005
X00241500Y00015500
X00241500Y00155500
X00261500Y00015500
X00281500Y00015500
X00351500Y00155500
T006
X00241500Y00191750
X00261500Y00191750
T007
X00014000Y00014250
X00014000Y00199250
X00354000Y00199250
M30
