%FSLAX35Y35*%
%MOIN*%
G04 EasyPC Gerber Version 18.0.9 Build 3640 *
%ADD19O,0.06000X0.11000*%
%ADD16R,0.10000X0.10000*%
%ADD17R,0.10000X0.10000*%
%ADD10C,0.00500*%
%ADD75C,0.02362*%
%ADD21C,0.03150*%
%ADD71C,0.04800*%
%ADD18C,0.06000*%
%ADD89C,0.06299*%
%ADD88C,0.11811*%
X0Y0D02*
D02*
D10*
X1500Y211750D02*
Y1750D01*
X366500*
Y211750*
X1500*
X14000Y25524D02*
G75*
G02Y2976J-11274D01*
G01*
G75*
G02Y25524J11274*
G01*
Y210524D02*
G75*
G02Y187976J-11274D01*
G01*
G75*
G02Y210524J11274*
G01*
X30250Y101437D02*
G75*
G02Y87063J-7187D01*
G01*
G75*
G02Y101437J7187*
G01*
X35193Y57880D02*
G75*
G02X35728Y68717I6307J5120D01*
G01*
G75*
G02X34313Y73000I5772J4283*
G01*
G75*
G02X48687I7187*
G01*
G75*
G02X48131Y70228I-7187*
G01*
G75*
G02X59474Y63000I3369J-7228*
G01*
G75*
G02X49107Y55393I-7974*
G01*
G75*
G02X46453Y46750I-7607J-2393*
G01*
G75*
G02X49474Y40500I-4953J-6250*
G01*
G75*
G02X33526I-7974*
G01*
G75*
G02X36547Y46750I7974*
G01*
G75*
G02X35193Y57880I4953J6250*
G01*
X39930Y155189D02*
G75*
G02X26813Y159250I-5930J4061D01*
G01*
G75*
G02X39930Y163311I7187*
G01*
G75*
G02X52750Y167962I7820J-1561*
G01*
G75*
G02X62750I5000J-6212*
G01*
G75*
G02X73347Y167430I5000J-6212*
G01*
G75*
G02X78701Y168874I4403J-5680*
G01*
Y169250*
G75*
G02X90250Y180799I11549*
G01*
X131201*
Y181776*
X127776*
Y201724*
X147724*
Y181776*
X144299*
Y180799*
X167750*
G75*
G02X179299Y169250J-11549*
G01*
Y168054*
G75*
G02X189937Y161750I3451J-6304*
G01*
Y156750*
G75*
G02X178347Y151070I-7187*
G01*
G75*
G02X167750Y150538I-5597J5680*
G01*
G75*
G02X157750I-5000J6212*
G01*
G75*
G02X144955Y155067I-5000J6212*
G01*
G75*
G02X133063Y160500I-4705J5433*
G01*
G75*
G02X145606Y165293I7187*
G01*
G75*
G02X147442Y167701I7144J-3543*
G01*
X138781*
G75*
G02X136719I-1031J6550*
G01*
X92963*
X91799Y166537*
Y166374*
G75*
G02X99937Y159250I951J-7124*
G01*
G75*
G02X91799Y152126I-7187*
G01*
Y150500*
G75*
G02X91213Y147075I-10300*
G01*
G75*
G02X100357Y136857I1537J-7825*
G01*
G75*
G02X107300Y135799I2393J-7607*
G01*
X118787*
X121201Y138213*
Y141895*
G75*
G02X112033Y143478I-3451J7355*
G01*
G75*
G02X107750Y142063I-4283J5772*
G01*
G75*
G02Y156437J7187*
G01*
G75*
G02X110522Y155881J-7187*
G01*
G75*
G02X117750Y167224I7228J3369*
G01*
G75*
G02X125357Y156857I0J-7975*
G01*
G75*
G02X135331Y146777I2393J-7607*
G01*
G75*
G02X147831Y138027I4919J-6277*
G01*
G75*
G02X157750Y137962I4919J-6277*
G01*
G75*
G02X167750I5000J-6212*
G01*
G75*
G02X177750I5000J-6212*
G01*
G75*
G02X190724Y131750I5000J-6212*
G01*
Y126750*
G75*
G02X177750Y120538I-7974*
G01*
G75*
G02X167750I-5000J6212*
G01*
G75*
G02X157750I-5000J6212*
G01*
G75*
G02X146274Y122096I-5000J6212*
G01*
G75*
G02X136119Y133679I-3524J7154*
G01*
G75*
G02X134296Y135196I4131J6821*
G01*
G75*
G02X121500Y122701I-12796J304*
G01*
X107300*
G75*
G02X95143Y131643I-4550J6549*
G01*
G75*
G02X84925Y140787I-2394J7606*
G01*
G75*
G02X81500Y140201I-3425J9713*
G01*
X65463*
X64299Y139037*
Y138939*
G75*
G02X72750Y137962I3451J-7189*
G01*
G75*
G02X85724Y131750I5000J-6212*
G01*
Y126750*
G75*
G02X72750Y120538I-7974*
G01*
G75*
G02X62750I-5000J6212*
G01*
G75*
G02X52750I-5000J6212*
G01*
G75*
G02X39776Y126750I-5000J6212*
G01*
Y131750*
G75*
G02X40155Y134180I7975*
G01*
G75*
G02X26026Y139250I-6155J5070*
G01*
G75*
G02X41974I7974*
G01*
G75*
G02X41595Y136820I-7975J0*
G01*
G75*
G02X51201Y138939I6155J-5070*
G01*
Y141750*
G75*
G02X54260Y149580I11549*
G01*
G75*
G02X52750Y150538I3489J7171*
G01*
G75*
G02X39930Y155189I-5000J6212*
G01*
X46937Y200937D02*
Y182563D01*
X28563*
Y200937*
X46937*
X47750Y15547D02*
G75*
G02X33526Y20500I-6250J4953D01*
G01*
G75*
G02X47750Y25453I7974*
G01*
G75*
G02X47788Y25500I6242J-4955*
G01*
G75*
G02X46026Y30500I6212J5000*
G01*
G75*
G02X61974I7974*
G01*
G75*
G02X60212Y25500I-7974*
G01*
G75*
G02X61974Y20500I-6212J-5000*
G01*
G75*
G02X47750Y15547I-7974*
G01*
X50250Y102224D02*
G75*
G02Y86276J-7974D01*
G01*
G75*
G02Y102224J7974*
G01*
X62776Y10526D02*
Y30474D01*
X82724*
Y10526*
X62776*
X67724Y201724D02*
Y181776D01*
X47776*
Y201724*
X67724*
X71201Y44196D02*
G75*
G02X60563Y50500I-3451J6304D01*
G01*
Y55500*
G75*
G02X72153Y61180I7187*
G01*
G75*
G02X82750Y61712I5597J-5680*
G01*
G75*
G02X92750I5000J-6212*
G01*
G75*
G02X105545Y57183I5000J-6212*
G01*
G75*
G02X117437Y51750I4705J-5433*
G01*
G75*
G02X104894Y46957I-7187*
G01*
G75*
G02X103058Y44549I-7145J3543*
G01*
X111719*
G75*
G02X113781I1031J-6550*
G01*
X157537*
X158701Y45713*
Y45876*
G75*
G02X150563Y53000I-951J7124*
G01*
G75*
G02X158701Y60124I7187*
G01*
Y61750*
G75*
G02X159287Y65175I10299*
G01*
G75*
G02X150143Y75393I-1537J7825*
G01*
G75*
G02X143200Y76451I-2393J7607*
G01*
X130463*
X129299Y75287*
Y70355*
G75*
G02X138467Y68772I3451J-7355*
G01*
G75*
G02X142750Y70187I4283J-5772*
G01*
G75*
G02Y55813J-7187*
G01*
G75*
G02X139978Y56369J7187*
G01*
G75*
G02X132750Y45026I-7228J-3369*
G01*
G75*
G02X125143Y55393J7974*
G01*
G75*
G02X115169Y65473I-2393J7607*
G01*
G75*
G02X102669Y74223I-4919J6276*
G01*
G75*
G02X92750Y74288I-4919J6277*
G01*
G75*
G02X82750I-5000J6212*
G01*
G75*
G02X72750I-5000J6212*
G01*
G75*
G02X59776Y80500I-5000J6212*
G01*
Y85500*
G75*
G02X72750Y91712I7974*
G01*
G75*
G02X82750I5000J-6212*
G01*
G75*
G02X92750I5000J-6212*
G01*
G75*
G02X104226Y90154I5000J-6212*
G01*
G75*
G02X114381Y78571I3524J-7154*
G01*
G75*
G02X116201Y77058I-4132J-6821*
G01*
Y78000*
G75*
G02X127750Y89549I11549*
G01*
X143200*
G75*
G02X155357Y80607I4550J-6549*
G01*
G75*
G02X165575Y71463I2393J-7607*
G01*
G75*
G02X169000Y72049I3425J-9713*
G01*
X185037*
X186201Y73213*
Y73311*
G75*
G02X177750Y74288I-3451J7189*
G01*
G75*
G02X164776Y80500I-5000J6212*
G01*
Y85500*
G75*
G02X177750Y91712I7974*
G01*
G75*
G02X187750I5000J-6212*
G01*
G75*
G02X197750I5000J-6212*
G01*
G75*
G02X208701Y90808I5000J-6212*
G01*
Y95790*
G75*
G02X202876Y103000I1549J7210*
G01*
G75*
G02X213640Y109549I7374*
G01*
X275250*
G75*
G02X288049Y96750J-12799*
G01*
Y24188*
G75*
G02X281500Y4620I-6549J-8688*
G01*
G75*
G02X271087Y12346J10880*
G01*
G75*
G02X251913I-9587J3154*
G01*
G75*
G02X241500Y4620I-10413J3154*
G01*
G75*
G02X234951Y24188J10880*
G01*
Y90860*
G75*
G02X234462Y96451I6549J3389*
G01*
X221799*
Y77550*
G75*
G02X223224Y73000I-6549J-4550*
G01*
G75*
G02X207276I-7974*
G01*
G75*
G02X207335Y73976I7974J1*
G01*
G75*
G02X199299Y73311I-4585J6524*
G01*
Y70500*
G75*
G02X196240Y62670I-11550J0*
G01*
G75*
G02X197750Y61712I-3489J-7171*
G01*
G75*
G02X210263Y58175I5000J-6212*
G01*
G75*
G02X222437Y53000I4987J-5175*
G01*
G75*
G02X210263Y47825I-7187*
G01*
G75*
G02X197750Y44288I-7513J2675*
G01*
G75*
G02X187750I-5000J6212*
G01*
G75*
G02X177153Y44820I-5000J6212*
G01*
G75*
G02X171799Y43376I-4403J5680*
G01*
Y43000*
G75*
G02X160250Y31451I-11549*
G01*
X119299*
Y30474*
X122724*
Y10526*
X102776*
Y30474*
X106201*
Y31451*
X82750*
G75*
G02X71201Y43000J11549*
G01*
Y44196*
X83563Y11313D02*
Y29687D01*
X101937*
Y11313*
X83563*
X87724Y201724D02*
Y181776D01*
X67776*
Y201724*
X87724*
X106937Y200937D02*
Y182563D01*
X88563*
Y200937*
X106937*
X122776Y10526D02*
Y30474D01*
X142724*
Y10526*
X122776*
X127724Y201724D02*
Y181776D01*
X107776*
Y201724*
X127724*
X143563Y11313D02*
Y29687D01*
X161937*
Y11313*
X143563*
X162776Y10526D02*
Y30474D01*
X182724*
Y10526*
X162776*
X166937Y200937D02*
Y182563D01*
X148563*
Y200937*
X166937*
X182776Y10526D02*
Y30474D01*
X202724*
Y10526*
X182776*
X187724Y201724D02*
Y181776D01*
X167776*
Y201724*
X187724*
X190288Y186750D02*
G75*
G02X188526Y191750I6212J5000D01*
G01*
G75*
G02X202750Y196703I7974*
G01*
G75*
G02X216974Y191750I6250J-4953*
G01*
G75*
G02X202750Y186797I-7974*
G01*
G75*
G02X202712Y186750I-6227J4943*
G01*
G75*
G02X204474Y181750I-6212J-5000*
G01*
G75*
G02X188526I-7974*
G01*
G75*
G02X190288Y186750I7974*
G01*
X200250Y110026D02*
G75*
G02Y125974J7974D01*
G01*
G75*
G02Y110026J-7974*
G01*
X201393Y156857D02*
G75*
G02X204047Y165500I7607J2393D01*
G01*
G75*
G02X201026Y171750I4953J6250*
G01*
G75*
G02X216974I7974*
G01*
G75*
G02X213953Y165500I-7974*
G01*
G75*
G02X215307Y154370I-4953J-6250*
G01*
G75*
G02X214772Y143533I-6307J-5120*
G01*
G75*
G02X216187Y139250I-5772J-4283*
G01*
G75*
G02X201813I-7187*
G01*
G75*
G02X202369Y142022I7187*
G01*
G75*
G02X191026Y149250I-3369J7228*
G01*
G75*
G02X201393Y156857I7974*
G01*
X203563Y11313D02*
Y29687D01*
X221937*
Y11313*
X203563*
X220250Y110813D02*
G75*
G02Y125187J7187D01*
G01*
G75*
G02Y110813J-7187*
G01*
X231526Y181776D02*
Y201724D01*
X251474*
Y181776*
X231526*
X241500Y166380D02*
G75*
G02Y144620J-10880D01*
G01*
G75*
G02Y166380J10880*
G01*
X251526Y181776D02*
Y201724D01*
X271474*
Y181776*
X251526*
X351500Y166380D02*
G75*
G02Y144620J-10880D01*
G01*
G75*
G02Y166380J10880*
G01*
X354000Y210524D02*
G75*
G02Y187976J-11274D01*
G01*
G75*
G02Y210524J11274*
G01*
X1500Y14250D02*
G36*
Y1750D01*
X366500*
Y14250*
X292308*
G75*
G02X281500Y4620I-10808J1250*
G01*
G75*
G02X271087Y12346J10880*
G01*
G75*
G02X251913I-9587J3154*
G01*
G75*
G02X241500Y4620I-10413J3154*
G01*
G75*
G02X230692Y14250J10880*
G01*
X221937*
Y11313*
X203563*
Y14250*
X202724*
Y10526*
X182776*
Y14250*
X182724*
Y10526*
X162776*
Y14250*
X161937*
Y11313*
X143563*
Y14250*
X142724*
Y10526*
X122776*
Y14250*
X122724*
Y10526*
X102776*
Y14250*
X101937*
Y11313*
X83563*
Y14250*
X82724*
Y10526*
X62776*
Y14250*
X58953*
G75*
G02X47750Y15547I-4953J6250*
G01*
G75*
G02X36547Y14250I-6250J4953*
G01*
X25274*
G75*
G02X14000Y2976I-11274*
G01*
G75*
G02X2726Y14250J11274*
G01*
X1500*
G37*
X2726D02*
G36*
G75*
G02X14000Y25524I11274D01*
G01*
G75*
G02X25274Y14250J-11274*
G01*
X36547*
G75*
G02X33526Y20500I4953J6250*
G01*
G75*
G02X47750Y25453I7974*
G01*
G75*
G02X47788Y25500I6242J-4955*
G01*
G75*
G02X46026Y30500I6212J5000*
G01*
G75*
G02X61974I7974*
G01*
G75*
G02X60212Y25500I-7974*
G01*
G75*
G02X61974Y20500I-6212J-5000*
G01*
G75*
G02X58953Y14250I-7974*
G01*
X62776*
Y30474*
X82724*
Y14250*
X83563*
Y29687*
X101937*
Y14250*
X102776*
Y30474*
X106201*
Y31451*
X82750*
G75*
G02X71201Y43000J11549*
G01*
Y44196*
G75*
G02X60563Y50500I-3451J6304*
G01*
Y55500*
G75*
G02X60614Y56356I7187*
G01*
X55910*
G75*
G02X49107Y55393I-4410J6644*
G01*
G75*
G02X46453Y46750I-7607J-2393*
G01*
G75*
G02X49474Y40500I-4953J-6250*
G01*
G75*
G02X33526I-7974*
G01*
G75*
G02X36547Y46750I7974*
G01*
G75*
G02X34267Y56356I4953J6250*
G01*
X1500*
Y14250*
X2726*
G37*
X122776D02*
G36*
Y30474D01*
X142724*
Y14250*
X143563*
Y29687*
X161937*
Y14250*
X162776*
Y30474*
X182724*
Y14250*
X182776*
Y30474*
X202724*
Y14250*
X203563*
Y29687*
X221937*
Y14250*
X230692*
G75*
G02X234951Y24188I10807J1250*
G01*
Y90860*
G75*
G02X234462Y96451I6549J3389*
G01*
X221799*
Y77550*
G75*
G02X223224Y73000I-6549J-4550*
G01*
G75*
G02X207276I-7974*
G01*
G75*
G02X207335Y73976I7974J1*
G01*
G75*
G02X199299Y73311I-4585J6524*
G01*
Y70500*
G75*
G02X196240Y62670I-11550J0*
G01*
G75*
G02X197750Y61712I-3489J-7171*
G01*
G75*
G02X210263Y58175I5000J-6212*
G01*
G75*
G02X222437Y53000I4987J-5175*
G01*
G75*
G02X210263Y47825I-7187*
G01*
G75*
G02X197750Y44288I-7513J2675*
G01*
G75*
G02X187750I-5000J6212*
G01*
G75*
G02X177153Y44820I-5000J6212*
G01*
G75*
G02X171799Y43376I-4403J5680*
G01*
Y43000*
G75*
G02X160250Y31451I-11549*
G01*
X119299*
Y30474*
X122724*
Y14250*
X122776*
G37*
X366500D02*
G36*
Y56356D01*
X288049*
Y24188*
G75*
G02X292308Y14250I-6549J-8688*
G01*
X366500*
G37*
X1500Y199250D02*
G36*
Y155894D01*
X27645*
G75*
G02X26813Y159250I6355J3356*
G01*
G75*
G02X39930Y163311I7187*
G01*
G75*
G02X52750Y167962I7820J-1561*
G01*
G75*
G02X62750I5000J-6212*
G01*
G75*
G02X73347Y167430I5000J-6212*
G01*
G75*
G02X78701Y168874I4403J-5680*
G01*
Y169250*
G75*
G02X90250Y180799I11549*
G01*
X131201*
Y181776*
X127776*
Y199250*
X127724*
Y181776*
X107776*
Y199250*
X106937*
Y182563*
X88563*
Y199250*
X87724*
Y181776*
X67776*
Y199250*
X67724*
Y181776*
X47776*
Y199250*
X46937*
Y182563*
X28563*
Y199250*
X25274*
G75*
G02X14000Y187976I-11274*
G01*
G75*
G02X2726Y199250J11274*
G01*
X1500*
G37*
X2726D02*
G36*
G75*
G02X14000Y210524I11274D01*
G01*
G75*
G02X25274Y199250J-11274*
G01*
X28563*
Y200937*
X46937*
Y199250*
X47776*
Y201724*
X67724*
Y199250*
X67776*
Y201724*
X87724*
Y199250*
X88563*
Y200937*
X106937*
Y199250*
X107776*
Y201724*
X127724*
Y199250*
X127776*
Y201724*
X147724*
Y199250*
X148563*
Y200937*
X166937*
Y199250*
X167776*
Y201724*
X187724*
Y199250*
X193790*
G75*
G02X202750Y196703I2710J-7500*
G01*
G75*
G02X211709Y199250I6250J-4953*
G01*
X231526*
Y201724*
X251474*
Y199250*
X251526*
Y201724*
X271474*
Y199250*
X342726*
G75*
G02X354000Y210524I11274*
G01*
G75*
G02X365274Y199250J-11274*
G01*
X366500*
Y211750*
X1500*
Y199250*
X2726*
G37*
X147724D02*
G36*
Y181776D01*
X144299*
Y180799*
X167750*
G75*
G02X179299Y169250J-11549*
G01*
Y168054*
G75*
G02X189937Y161750I3451J-6304*
G01*
Y156750*
G75*
G02X189886Y155894I-7188*
G01*
X194590*
G75*
G02X201393Y156857I4410J-6644*
G01*
G75*
G02X204047Y165500I7607J2393*
G01*
G75*
G02X201026Y171750I4953J6250*
G01*
G75*
G02X216974I7974*
G01*
G75*
G02X213953Y165500I-7974*
G01*
G75*
G02X216234Y155894I-4953J-6250*
G01*
X230627*
G75*
G02X241500Y166380I10873J-394*
G01*
G75*
G02X252373Y155894J-10880*
G01*
X340627*
G75*
G02X351500Y166380I10873J-394*
G01*
G75*
G02X362373Y155894J-10880*
G01*
X366500*
Y199250*
X365274*
G75*
G02X354000Y187976I-11274*
G01*
G75*
G02X342726Y199250J11274*
G01*
X271474*
Y181776*
X251526*
Y199250*
X251474*
Y181776*
X231526*
Y199250*
X211709*
G75*
G02X216974Y191750I-2709J-7500*
G01*
G75*
G02X202750Y186797I-7974*
G01*
G75*
G02X202712Y186750I-6227J4943*
G01*
G75*
G02X204474Y181750I-6212J-5000*
G01*
G75*
G02X188526I-7974*
G01*
G75*
G02X190288Y186750I7974*
G01*
G75*
G02X188526Y191750I6212J5000*
G01*
G75*
G02X193790Y199250I7974*
G01*
X187724*
Y181776*
X167776*
Y199250*
X166937*
Y182563*
X148563*
Y199250*
X147724*
G37*
X1500Y94250D02*
G36*
Y56356D01*
X34267*
G75*
G02X35193Y57880I7234J-3356*
G01*
G75*
G02X35728Y68717I6307J5120*
G01*
G75*
G02X34313Y73000I5772J4283*
G01*
G75*
G02X48687I7187*
G01*
G75*
G02X48131Y70228I-7187*
G01*
G75*
G02X59474Y63000I3369J-7228*
G01*
G75*
G02X55910Y56356I-7974*
G01*
X60614*
G75*
G02X72153Y61180I7136J-856*
G01*
G75*
G02X82750Y61712I5597J-5680*
G01*
G75*
G02X92750I5000J-6212*
G01*
G75*
G02X105545Y57183I5000J-6212*
G01*
G75*
G02X117437Y51750I4705J-5433*
G01*
G75*
G02X104894Y46957I-7187*
G01*
G75*
G02X103058Y44549I-7145J3543*
G01*
X111719*
G75*
G02X113781I1031J-6550*
G01*
X157537*
X158701Y45713*
Y45876*
G75*
G02X150563Y53000I-951J7124*
G01*
G75*
G02X158701Y60124I7187*
G01*
Y61750*
G75*
G02X159287Y65175I10299*
G01*
G75*
G02X150143Y75393I-1537J7825*
G01*
G75*
G02X143200Y76451I-2393J7607*
G01*
X130463*
X129299Y75287*
Y70355*
G75*
G02X138467Y68772I3451J-7355*
G01*
G75*
G02X142750Y70187I4283J-5772*
G01*
G75*
G02Y55813J-7187*
G01*
G75*
G02X139978Y56369J7187*
G01*
G75*
G02X132750Y45026I-7228J-3369*
G01*
G75*
G02X125143Y55393J7974*
G01*
G75*
G02X115169Y65473I-2393J7607*
G01*
G75*
G02X102669Y74223I-4919J6276*
G01*
G75*
G02X92750Y74288I-4919J6277*
G01*
G75*
G02X82750I-5000J6212*
G01*
G75*
G02X72750I-5000J6212*
G01*
G75*
G02X59776Y80500I-5000J6212*
G01*
Y85500*
G75*
G02X72750Y91712I7974*
G01*
G75*
G02X82750I5000J-6212*
G01*
G75*
G02X92750I5000J-6212*
G01*
G75*
G02X104226Y90154I5000J-6212*
G01*
G75*
G02X114381Y78571I3524J-7154*
G01*
G75*
G02X116201Y77058I-4132J-6821*
G01*
Y78000*
G75*
G02X127750Y89549I11549*
G01*
X143200*
G75*
G02X155357Y80607I4550J-6549*
G01*
G75*
G02X165575Y71463I2393J-7607*
G01*
G75*
G02X169000Y72049I3425J-9713*
G01*
X185037*
X186201Y73213*
Y73311*
G75*
G02X177750Y74288I-3451J7189*
G01*
G75*
G02X164776Y80500I-5000J6212*
G01*
Y85500*
G75*
G02X177750Y91712I7974*
G01*
G75*
G02X187750I5000J-6212*
G01*
G75*
G02X197750I5000J-6212*
G01*
G75*
G02X208701Y90808I5000J-6212*
G01*
Y94250*
X58224*
G75*
G02X50250Y86276I-7974*
G01*
G75*
G02X42276Y94250J7974*
G01*
X37437*
G75*
G02X30250Y87063I-7187*
G01*
G75*
G02X23063Y94250J7187*
G01*
X1500*
G37*
X23063D02*
G36*
G75*
G02X30250Y101437I7187D01*
G01*
G75*
G02X37437Y94250J-7187*
G01*
X42276*
G75*
G02X50250Y102224I7974*
G01*
G75*
G02X58224Y94250J-7974*
G01*
X208701*
Y95790*
G75*
G02X202876Y103000I1549J7210*
G01*
G75*
G02X213640Y109549I7374*
G01*
X275250*
G75*
G02X288049Y96750J-12799*
G01*
Y94250*
X366500*
Y118000*
X227437*
G75*
G02X220250Y110813I-7187*
G01*
G75*
G02X213063Y118000J7187*
G01*
X208224*
G75*
G02X200250Y110026I-7974*
G01*
G75*
G02X192276Y118000J7974*
G01*
X1500*
Y94250*
X23063*
G37*
X288049D02*
G36*
Y56356D01*
X366500*
Y94250*
X288049*
G37*
X192276Y118000D02*
G36*
G75*
G02X200250Y125974I7974D01*
G01*
G75*
G02X208224Y118000J-7974*
G01*
X213063*
G75*
G02X220250Y125187I7187*
G01*
G75*
G02X227437Y118000J-7187*
G01*
X366500*
Y155894*
X362373*
G75*
G02X351500Y144620I-10873J-394*
G01*
G75*
G02X340627Y155894J10880*
G01*
X252373*
G75*
G02X241500Y144620I-10873J-394*
G01*
G75*
G02X230627Y155894J10880*
G01*
X216234*
G75*
G02X215307Y154370I-7233J3357*
G01*
G75*
G02X214772Y143533I-6307J-5120*
G01*
G75*
G02X216187Y139250I-5772J-4283*
G01*
G75*
G02X201813I-7187*
G01*
G75*
G02X202369Y142022I7187*
G01*
G75*
G02X191026Y149250I-3369J7228*
G01*
G75*
G02X194590Y155894I7974*
G01*
X189886*
G75*
G02X178347Y151070I-7136J856*
G01*
G75*
G02X167750Y150538I-5597J5680*
G01*
G75*
G02X157750I-5000J6212*
G01*
G75*
G02X144955Y155067I-5000J6212*
G01*
G75*
G02X133063Y160500I-4705J5433*
G01*
G75*
G02X145606Y165293I7187*
G01*
G75*
G02X147442Y167701I7144J-3543*
G01*
X138781*
G75*
G02X136719I-1031J6550*
G01*
X92963*
X91799Y166537*
Y166374*
G75*
G02X99937Y159250I951J-7124*
G01*
G75*
G02X91799Y152126I-7187*
G01*
Y150500*
G75*
G02X91213Y147075I-10300*
G01*
G75*
G02X100357Y136857I1537J-7825*
G01*
G75*
G02X107300Y135799I2393J-7607*
G01*
X118787*
X121201Y138213*
Y141895*
G75*
G02X112033Y143478I-3451J7355*
G01*
G75*
G02X107750Y142063I-4283J5772*
G01*
G75*
G02Y156437J7187*
G01*
G75*
G02X110522Y155881J-7187*
G01*
G75*
G02X117750Y167224I7228J3369*
G01*
G75*
G02X125357Y156857I0J-7975*
G01*
G75*
G02X135331Y146777I2393J-7607*
G01*
G75*
G02X147831Y138027I4919J-6277*
G01*
G75*
G02X157750Y137962I4919J-6277*
G01*
G75*
G02X167750I5000J-6212*
G01*
G75*
G02X177750I5000J-6212*
G01*
G75*
G02X190724Y131750I5000J-6212*
G01*
Y126750*
G75*
G02X177750Y120538I-7974*
G01*
G75*
G02X167750I-5000J6212*
G01*
G75*
G02X157750I-5000J6212*
G01*
G75*
G02X146274Y122096I-5000J6212*
G01*
G75*
G02X136119Y133679I-3524J7154*
G01*
G75*
G02X134296Y135196I4131J6821*
G01*
G75*
G02X121500Y122701I-12796J304*
G01*
X107300*
G75*
G02X95143Y131643I-4550J6549*
G01*
G75*
G02X84925Y140787I-2394J7606*
G01*
G75*
G02X81500Y140201I-3425J9713*
G01*
X65463*
X64299Y139037*
Y138939*
G75*
G02X72750Y137962I3451J-7189*
G01*
G75*
G02X85724Y131750I5000J-6212*
G01*
Y126750*
G75*
G02X72750Y120538I-7974*
G01*
G75*
G02X62750I-5000J6212*
G01*
G75*
G02X52750I-5000J6212*
G01*
G75*
G02X39776Y126750I-5000J6212*
G01*
Y131750*
G75*
G02X40155Y134180I7975*
G01*
G75*
G02X26026Y139250I-6155J5070*
G01*
G75*
G02X41974I7974*
G01*
G75*
G02X41595Y136820I-7975J0*
G01*
G75*
G02X51201Y138939I6155J-5070*
G01*
Y141750*
G75*
G02X54260Y149580I11549*
G01*
G75*
G02X52750Y150538I3489J7171*
G01*
G75*
G02X39930Y155189I-5000J6212*
G01*
G75*
G02X27645Y155894I-5930J4061*
G01*
X1500*
Y118000*
X192276*
G37*
X248049Y24188D02*
G75*
G02X251913Y18654I-6549J-8688D01*
G01*
G75*
G02X271087I9587J-3154*
G01*
G75*
G02X274951Y24188I10413J-3154*
G01*
Y94037*
X272537Y96451*
X248538*
G75*
G02X248049Y90860I-7039J-2201*
G01*
Y24188*
G36*
G75*
G02X251913Y18654I-6549J-8688*
G01*
G75*
G02X271087I9587J-3154*
G01*
G75*
G02X274951Y24188I10413J-3154*
G01*
Y94037*
X272537Y96451*
X248538*
G75*
G02X248049Y90860I-7039J-2201*
G01*
Y24188*
G37*
D02*
D16*
X37750Y191750D03*
X57750D03*
X72750Y20500D03*
X77750Y191750D03*
X92750Y20500D03*
X97750Y191750D03*
X112750Y20500D03*
X117750Y191750D03*
X132750Y20500D03*
X137750Y191750D03*
X152750Y20500D03*
X157750Y191750D03*
X172750Y20500D03*
X177750Y191750D03*
X192750Y20500D03*
X212750D03*
D02*
D17*
X241500Y191750D03*
X261500D03*
D02*
D18*
X30250Y94250D03*
X34000Y139250D03*
Y159250D03*
X41500Y20500D03*
Y40500D03*
Y53000D03*
Y73000D03*
X50250Y94250D03*
X51500Y63000D03*
X54000Y20500D03*
Y30500D03*
X92750Y139250D03*
Y159250D03*
X102750Y129250D03*
X107750Y83000D03*
Y149250D03*
X110250Y51750D03*
Y71750D03*
X117750Y159250D03*
X122750Y63000D03*
X127750Y149250D03*
X132750Y53000D03*
X140250Y140500D03*
Y160500D03*
X142750Y63000D03*
Y129250D03*
X147750Y83000D03*
X157750Y53000D03*
Y73000D03*
X196500Y181750D03*
Y191750D03*
X199000Y149250D03*
X200250Y118000D03*
X209000Y139250D03*
Y159250D03*
Y171750D03*
Y191750D03*
X215250Y53000D03*
Y73000D03*
X220250Y118000D03*
D02*
D19*
X47750Y129250D03*
Y159250D03*
X57750Y129250D03*
Y159250D03*
X67750Y53000D03*
Y83000D03*
Y129250D03*
Y159250D03*
X77750Y53000D03*
Y83000D03*
Y129250D03*
Y159250D03*
X87750Y53000D03*
Y83000D03*
X97750Y53000D03*
Y83000D03*
X152750Y129250D03*
Y159250D03*
X162750Y129250D03*
Y159250D03*
X172750Y53000D03*
Y83000D03*
Y129250D03*
Y159250D03*
X182750Y53000D03*
Y83000D03*
Y129250D03*
Y159250D03*
X192750Y53000D03*
Y83000D03*
X202750Y53000D03*
Y83000D03*
D02*
D71*
X210250Y103000D03*
X241500Y94250D03*
D02*
D21*
X57750Y129250D02*
Y141750D01*
G75*
G02X62750Y146750I5000*
G01*
X81500*
G75*
G03X85250Y150500J3750*
G01*
Y169250*
G75*
G02X90250Y174250I5000*
G01*
X137750*
X77750Y53000D02*
Y43000D01*
G75*
G03X82750Y38000I5000*
G01*
X112750*
Y20500*
X122750Y63000D02*
Y78000D01*
G75*
G02X127750Y83000I5000*
G01*
X147750*
X127750Y149250D02*
Y135500D01*
G75*
G02X121500Y129250I-6250*
G01*
X102750*
X137750Y174250D02*
Y191750D01*
X172750Y159250D02*
Y169250D01*
G75*
G03X167750Y174250I-5000*
G01*
X137750*
X192750Y83000D02*
Y70500D01*
G75*
G02X187750Y65500I-5000*
G01*
X169000*
G75*
G03X165250Y61750J-3750*
G01*
Y43000*
G75*
G02X160250Y38000I-5000*
G01*
X112750*
X210250Y103000D02*
X215250D01*
Y73000*
X241500Y94250D02*
Y15500D01*
X281500D02*
Y96750D01*
G75*
G03X275250Y103000I-6250*
G01*
X210250*
D02*
D75*
X28431Y94250D02*
X22132D01*
X30250Y92431D02*
Y86132D01*
Y96069D02*
Y102368D01*
X32069Y94250D02*
X38368D01*
X32181Y159250D02*
X25882D01*
X33931Y191750D02*
X27632D01*
X34000Y157431D02*
Y151132D01*
Y161069D02*
Y167368D01*
X37750Y187931D02*
Y181632D01*
Y195569D02*
Y201868D01*
X39681Y73000D02*
X33382D01*
X41500Y74819D02*
Y81118D01*
X43319Y73000D02*
X49618D01*
X65931Y53000D02*
X59632D01*
X67750Y48681D02*
Y42382D01*
Y57319D02*
Y63618D01*
X77750Y163569D02*
Y169868D01*
X92750Y16681D02*
Y10382D01*
Y157431D02*
Y151132D01*
X94569Y159250D02*
X100868D01*
X97750Y195569D02*
Y201868D01*
X105931Y149250D02*
X99632D01*
X107750Y147431D02*
Y141132D01*
Y151069D02*
Y157368D01*
X110250Y53569D02*
Y59868D01*
X112069Y51750D02*
X118368D01*
X138431Y160500D02*
X132132D01*
X140250Y158681D02*
Y152382D01*
X142750Y61181D02*
Y54882D01*
Y64819D02*
Y71118D01*
X144569Y63000D02*
X150868D01*
X152750Y16681D02*
Y10382D01*
X155931Y53000D02*
X149632D01*
X157750Y54819D02*
Y61118D01*
Y195569D02*
Y201868D01*
X172750Y48681D02*
Y42382D01*
X182750Y154931D02*
Y148632D01*
Y163569D02*
Y169868D01*
X184569Y159250D02*
X190868D01*
X207181Y139250D02*
X200882D01*
X209000Y137431D02*
Y131132D01*
X210819Y139250D02*
X217118D01*
X212750Y16681D02*
Y10382D01*
Y24319D02*
Y30618D01*
X215250Y51181D02*
Y44882D01*
Y54819D02*
Y61118D01*
X216569Y20500D02*
X222868D01*
X217069Y53000D02*
X223368D01*
X218964Y116714D02*
X214509Y112259D01*
X218964Y119286D02*
X214509Y123741D01*
X221536Y116714D02*
X225991Y112259D01*
X221536Y119286D02*
X225991Y123741D01*
X258159Y12159D02*
X253705Y7705D01*
X258159Y18841D02*
X253705Y23295D01*
X264841Y12159D02*
X269295Y7705D01*
X264841Y18841D02*
X269295Y23295D01*
D02*
D88*
X241500Y15500D03*
Y155500D03*
X261500Y15500D03*
X281500D03*
X351500Y155500D03*
D02*
D89*
X41500Y63000D03*
X117750Y149250D03*
X132750Y63000D03*
X209000Y149250D03*
X0Y0D02*
M02*
