Pour Copper Report
------------------

Report File:        Z:\Serge\Desktop\Khuntao\CDiff Guy\CDiff Guy (PCB - Pour Copper Report).txt
Report Written:     Sunday, January 29, 2017
Design Path:        Z:\Serge\Desktop\Khuntao\CDiff Guy\CDiff Guy.pcb
Design Title:       
Created:            21.04.2016 20:23:10
Last Saved:         28.01.2017 22:43:43
Editing Time:       1770 min
Units:              mm (precision 1)


End Of Report.
